animation{
  name = "stopped",
  src_image = "enemies/crab_hermit_yellow.png",
  directions = {
    { x = 48, y = 24, frame_width = 24, frame_height = 24, origin_x = 8, origin_y = 13 },
    { x = 48, y = 72, frame_width = 24, frame_height = 24, origin_x = 12, origin_y = 21 },
    { x = 48, y = 120, frame_width = 24, frame_height = 24, origin_x = 16, origin_y = 13 },
    { x = 48, y = 168, frame_width = 24, frame_height = 24, origin_x = 12, origin_y = 13 },
  },
}
animation{
  name = "destroy",
  src_image = "enemies/crab_hermit_yellow.png",
  frame_delay = 100,
  directions = {
    { x = 0, y = 208, frame_width = 32, frame_height = 32, origin_x = 16, origin_y = 17, num_frames = 3 },
    { x = 0, y = 208, frame_width = 32, frame_height = 32, origin_x = 16, origin_y = 17, num_frames = 3 },
    { x = 0, y = 208, frame_width = 32, frame_height = 32, origin_x = 16, origin_y = 17, num_frames = 3 },
    { x = 0, y = 208, frame_width = 32, frame_height = 32, origin_x = 16, origin_y = 17, num_frames = 3 },
  },
}
animation{
  name = "hurt",
  src_image = "enemies/crab_hermit_yellow.png",
  directions = {
    { x = 48, y = 24, frame_width = 24, frame_height = 24, origin_x = 8, origin_y = 13 },
    { x = 48, y = 72, frame_width = 24, frame_height = 24, origin_x = 12, origin_y = 21 },
    { x = 48, y = 120, frame_width = 24, frame_height = 24, origin_x = 16, origin_y = 13 },
    { x = 48, y = 168, frame_width = 24, frame_height = 24, origin_x = 12, origin_y = 13 },
  },
}
animation{
  name = "running",
  src_image = "enemies/crab_hermit_yellow.png",
  frame_delay = 150,
  frame_to_loop_on = 0,
  directions = {
    { x = 48, y = 0, frame_width = 24, frame_height = 24, origin_x = 8, origin_y = 13, num_frames = 2 },
    { x = 48, y = 48, frame_width = 24, frame_height = 24, origin_x = 12, origin_y = 21, num_frames = 2 },
    { x = 48, y = 96, frame_width = 24, frame_height = 24, origin_x = 16, origin_y = 13, num_frames = 2 },
    { x = 48, y = 144, frame_width = 24, frame_height = 24, origin_x = 12, origin_y = 13, num_frames = 2 },
  },
}
animation{
  name = "walking",
  src_image = "enemies/crab_hermit_yellow.png",
  frame_delay = 350,
  frame_to_loop_on = 0,
  directions = {
    { x = 48, y = 0, frame_width = 24, frame_height = 24, origin_x = 8, origin_y = 13, num_frames = 2 },
    { x = 48, y = 48, frame_width = 24, frame_height = 24, origin_x = 12, origin_y = 21, num_frames = 2 },
    { x = 48, y = 96, frame_width = 24, frame_height = 24, origin_x = 16, origin_y = 13, num_frames = 2 },
    { x = 48, y = 144, frame_width = 24, frame_height = 24, origin_x = 12, origin_y = 13, num_frames = 2 },
  },
}
animation{
  name = "hidden",
  src_image = "enemies/crab_hermit_yellow.png",
  directions = {
    { x = 0, y = 192, frame_width = 16, frame_height = 16, origin_x = 8, origin_y = 13 },
    { x = 16, y = 192, frame_width = 16, frame_height = 16, origin_x = 8, origin_y = 13 },
    { x = 48, y = 192, frame_width = 16, frame_height = 16, origin_x = 8, origin_y = 13 },
    { x = 32, y = 192, frame_width = 16, frame_height = 16, origin_x = 8, origin_y = 13 },
  },
}